<?xml version="1.0" encoding="UTF-8" standalone="no"?>
<!-- Created with Inkscape (http://www.inkscape.org/) -->

<svg
   xmlns:dc="http://purl.org/dc/elements/1.1/"
   xmlns:cc="http://creativecommons.org/ns#"
   xmlns:rdf="http://www.w3.org/1999/02/22-rdf-syntax-ns#"
   xmlns:svg="http://www.w3.org/2000/svg"
   xmlns="http://www.w3.org/2000/svg"
   xmlns:xlink="http://www.w3.org/1999/xlink"
   xmlns:sodipodi="http://sodipodi.sourceforge.net/DTD/sodipodi-0.dtd"
   xmlns:inkscape="http://www.inkscape.org/namespaces/inkscape"
   id="svg11393"
   version="1.1"
   inkscape:version="0.48.1 r9760"
   width="290"
   height="300"
   sodipodi:docname="PuntoLibreLogo.svg">
  <metadata
     id="metadata11399">
    <rdf:RDF>
      <cc:Work
         rdf:about="">
        <dc:format>image/svg+xml</dc:format>
        <dc:type
           rdf:resource="http://purl.org/dc/dcmitype/StillImage" />
        <dc:title />
      </cc:Work>
    </rdf:RDF>
  </metadata>
  <defs
     id="defs11397">
    <linearGradient
       id="linearGradient11928">
      <stop
         style="stop-color:#fe0000;stop-opacity:1;"
         offset="0"
         id="stop11930" />
      <stop
         style="stop-color:#740000;stop-opacity:1;"
         offset="1"
         id="stop11932" />
    </linearGradient>
    <radialGradient
       inkscape:collect="always"
       xlink:href="#linearGradient11928"
       id="radialGradient11946"
       cx="171.24127"
       cy="81.529106"
       fx="171.24127"
       fy="81.529106"
       r="28.856382"
       gradientUnits="userSpaceOnUse"
       gradientTransform="matrix(1.2278829,-1.4675923e-7,1.4035052e-7,1.1742634,-39.02297,-14.20751)" />
    <radialGradient
       inkscape:collect="always"
       xlink:href="#linearGradient11928-2"
       id="radialGradient11946-1"
       cx="171.24127"
       cy="81.529106"
       fx="171.24127"
       fy="81.529106"
       r="28.856382"
       gradientUnits="userSpaceOnUse"
       gradientTransform="matrix(1.2278829,-1.4675923e-7,1.4035052e-7,1.1742634,-39.02297,-14.20751)" />
    <linearGradient
       id="linearGradient11928-2">
      <stop
         style="stop-color:#fe0000;stop-opacity:1;"
         offset="0"
         id="stop11930-9" />
      <stop
         style="stop-color:#740000;stop-opacity:1;"
         offset="1"
         id="stop11932-3" />
    </linearGradient>
    <filter
       inkscape:collect="always"
       id="filter12007">
      <feGaussianBlur
         inkscape:collect="always"
         stdDeviation="1.1542553"
         id="feGaussianBlur12009" />
    </filter>
    <radialGradient
       inkscape:collect="always"
       xlink:href="#linearGradient11928"
       id="radialGradient12015"
       gradientUnits="userSpaceOnUse"
       gradientTransform="matrix(1.2278829,-1.4675923e-7,1.4035052e-7,1.1742634,-39.02297,-14.20751)"
       cx="171.24127"
       cy="81.529106"
       fx="171.24127"
       fy="81.529106"
       r="28.856382" />
    <radialGradient
       inkscape:collect="always"
       xlink:href="#linearGradient11928"
       id="radialGradient12022"
       gradientUnits="userSpaceOnUse"
       gradientTransform="matrix(1.2278829,-1.4675923e-7,1.4035052e-7,1.1742634,-39.02297,-14.20751)"
       cx="171.24127"
       cy="81.529106"
       fx="171.24127"
       fy="81.529106"
       r="28.856382" />
  </defs>
  <sodipodi:namedview
     pagecolor="#ffffff"
     bordercolor="#666666"
     borderopacity="1"
     objecttolerance="10"
     gridtolerance="10"
     guidetolerance="10"
     inkscape:pageopacity="0"
     inkscape:pageshadow="2"
     inkscape:window-width="1680"
     inkscape:window-height="992"
     id="namedview11395"
     showgrid="false"
     inkscape:zoom="2.6466667"
     inkscape:cx="145"
     inkscape:cy="150"
     inkscape:window-x="0"
     inkscape:window-y="26"
     inkscape:window-maximized="1"
     inkscape:current-layer="svg11393" />
  <g
     id="g11403"
     transform="translate(-182.31383,116.75532)" />
  <g
     id="g12017"
     transform="matrix(1.1961621,0,0,1.1961621,-60.501882,-122.87206)">
    <path
       transform="matrix(0.97235023,0,0,0.97235023,44.387021,83.991944)"
       d="m 211.70213,94.680847 c 0,15.936943 -12.91944,28.856383 -28.85638,28.856383 -15.93694,0 -28.85638,-12.91944 -28.85638,-28.856383 0,-15.93694 12.91944,-28.856382 28.85638,-28.856382 15.93694,0 28.85638,12.919442 28.85638,28.856382 z"
       sodipodi:ry="28.856382"
       sodipodi:rx="28.856382"
       sodipodi:cy="94.680847"
       sodipodi:cx="182.84575"
       id="path11409-8"
       style="fill:#808080;fill-opacity:1;stroke:none;filter:url(#filter12007)"
       sodipodi:type="arc" />
    <path
       sodipodi:nodetypes="ssssssssssssssssscsssssssss"
       inkscape:connector-curvature="0"
       id="path11405"
       d="m 132.88346,351.1653 c -10.94842,-2.86831 -18.69604,-7.40446 -27.23223,-15.94419 -11.7415,-11.74638 -16.96948,-24.3313 -16.96948,-40.8494 0,-13.69775 3.22927,-23.19645 12.47957,-36.70789 5.09604,-7.44353 6.08053,-11.97387 5.19049,-23.88502 -0.74054,-9.91048 -4.11905,-23.90012 -9.9236,-41.09134 -5.43472,-16.0959 -13.76371,-37.48847 -14.6134,-37.53371 -9.84955,-0.5245 -12.61546,-1.10403 -17.21369,-3.6067 -15.27019,-8.31108 -18.2562,-28.118 -6.07528,-40.29891 10.64856,-10.64856 25.65652,-10.65531 36.29551,-0.0163 4.75291,4.7529 7.8604,11.8514 7.8604,17.95564 0,5.04089 -2.9768,12.61289 -6.64183,16.89467 -4.31846,5.04514 -4.67802,3.14716 4.85076,25.60533 11.44842,26.98248 20.75693,42.66848 31.81406,53.61059 7.50861,7.43051 11.18172,9.17061 23.97701,11.35891 22.43038,3.83612 40.88455,20.26944 47.30298,42.12301 4.38592,14.93322 10.86295,19.78376 30.13936,22.57084 l 8.2914,1.19881 5.45787,-5.59029 c 4.19777,-4.29962 6.69463,-5.95757 10.81463,-7.18108 6.63024,-1.96897 9.29457,-1.98943 15.56226,-0.11951 17.73738,5.29181 23.96497,28.31569 11.35826,41.99235 -13.79534,14.96617 -38.15055,9.08846 -43.60297,-10.52283 -0.92732,-3.33536 -2.39202,-6.43292 -3.25491,-6.88347 -3.1552,-1.64745 -15.88166,-3.30224 -22.26872,-2.89555 -8.19425,0.52178 -11.77166,3.01795 -18.21452,12.70939 -15.23192,22.91209 -40.85208,33.53362 -65.38393,27.10667 z"
       style="fill:#000080" />
    <path
       transform="matrix(0.97235023,0,0,0.97235023,42.387021,81.991944)"
       d="m 211.70213,94.680847 c 0,15.936943 -12.91944,28.856383 -28.85638,28.856383 -15.93694,0 -28.85638,-12.91944 -28.85638,-28.856383 0,-15.93694 12.91944,-28.856382 28.85638,-28.856382 15.93694,0 28.85638,12.919442 28.85638,28.856382 z"
       sodipodi:ry="28.856382"
       sodipodi:rx="28.856382"
       sodipodi:cy="94.680847"
       sodipodi:cx="182.84575"
       id="path11409"
       style="fill:url(#radialGradient12022);fill-opacity:1;stroke:none"
       sodipodi:type="arc" />
  </g>
</svg>
